{
  "$schema": "http://json-schema.org/draft-04/schema#",
  "id": "what-the-hell-goes-here",
  "definitions": {
    "command": {
      "oneOf": [
        { "title": "Dwell command",
          "description": "Remain at the current position for a time interval DT",
          "type": "array", "minItems": 2, "maxItems": 2,
          "items": [
            {"type": "string", "enum": ["dwell"]},
            {"title": "DT", "type": "number", "exclusiveMinimum": 0.0}
          ]
        },
        { "title": "Set flag command",
          "description": "Set the indicated flags. The flags remain set for all subsequent motions until cleared. All flags start clear.",
          "type": "array", "minItems": 2,
          "items": [ { "type": "string", "enum": ["setflag"] } ],
          "additionalItems": { "type": "integer", "minimum": 0, "maximum": 31}
        },
        { "title": "Clear flag command",
          "description": "Clear the indicated flags. The flags remain clear for all subsequent motions until set. All flags start clear.",
          "type": "array", "minItems": 2,
          "items": [ { "type": "string", "enum": ["clrflag"] } ],
          "additionalItems": { "type": "integer", "minimum": 0, "maximum": 31}
        },
        { "title": "Relative movement command",
          "description": "Linear displacement from the current position.",
          "type": "array", "minItems": 3, "maxItems": 5,
          "items": [
            { "type": "string", "enum": ["moverel"] },
            { "type": "array", "minItems": 2, "maxItems": 2,
              "items": [
                { "type": "number", "title": "DX"},
                { "type": "number", "title": "DY"}]},
            {"type": "number", "title": "S", "exclusiveMinimum": 0.0},
            {"type": "number", "title": "A", "exclusiveMinimum": 0.0},
            {"type": "number", "title": "D", "exclusiveMinimum": 0.0}
          ]
        }
      ]
    }
  },
  "type": "array", "minItems": 1,
  "items": { "$ref": "#/definitions/command" }
}
